[{ "Hotel Greek": {
    "location": "Athens",
    "rooms": "60",
    "isSPA": "true",
    "attractions": [
    "swimming pool",
    "bar",
    "WiFi"]}
  },
  { "Imperial Belvedere Hotel": {
    "location": "Kreta",
    "rooms": "40",
    "isSPA": "false",
    "attractions": [
    "swimming pool",
    "WiFi"]}
}]