[{
  "Modern Hotel": {
      "location": "Venice",
      "rooms": "12",
      "isSPA": "true",
      "attractions": [
        "restaurant",
        "private beach",
      ]
  },
  {"Hotel Koloseum": {
      "location": "Roma",
      "rooms": "20",
      "isSPA": "false",
      "attractions": [
        "restaurant and bar",
		"balcons",
      ]
  }
]